"M107
M190 S80 ; wait for bed temperature to be reached
G28
G1 Z27 F200
G1 X70 F2000
G90
G1 Y30 F2000
G1 Z0 F200
G92 E0
//prime extruder
G1 F100.0 E2.00
M109 S230 ; wait for temperature to be reacG92 E0
G1 Z-0.400000 F500.000000
G1 F1800.0 E0.000000
G1 X0.349998 Y0.349998
G1 F1800.0 E1.000000
G1 X0.349998 Y0.157898 E1.003664
G1 X0.349998 Y0.349998
G1 F1800.0 E1.546851
G1 X0.349998 Y49.650002
G1 X30.825001 Y0.349998 E40.123062
G1 F1800.0 E39.123062
G1 X30.927513 Y3.505760 E42.404785
G1 X30.927513 Y1.525871
G92 E0
G1 Z-0.100000 F1800.000000
G1 F1800.0 E-1.000000
G1 X0.349998 Y0.349998
G1 F1800.0 E0.000000
G1 X0.349998 Y0.315788
G1 X30.656036 Y0.816666 E41.448166
G92 E0
G1 Z0.500000 F1800.000000
G1 F1800.0 E-1.000000
G1 X0.349998 Y0.631577
G1 F1800.0 E0.000000
G1 X30.655769 Y49.183334
G1 X30.951916 Y48.887188 E41.490849
M107
M140 S0
G91
G1 E-2
G1 Z10 F200
G1 Y190 F1000
G90
M84     ; disable motors
